%YAML 1.1
%TAG !u! tag:unity3d.com,2011:
--- !u!1045 &1
EditorBuildSettings:
  m_ObjectHideFlags: 0
  serializedVersion: 2
  m_Scenes:
  - enabled: 1
    path: Assets/Scenes/MainMenu.unity
    guid: 48b350188a2dd824f8d2fd0ad816f23d
  - enabled: 1
    path: Assets/Scenes/1-1.unity
    guid: 3cef087f1779eef46875beb55b5aff12
  - enabled: 1
    path: Assets/Scenes/1-2.unity
    guid: 671e3bf73cac680418e3e90166857b24
  - enabled: 1
    path: Assets/Scenes/1-3.unity
    guid: a3e6297d5dd41c5438e500df46a398a8
  - enabled: 1
    path: Assets/Scenes/1-4.unity
    guid: 59b5ed3a2439933439a1de1963bb17d9
  - enabled: 1
    path: Assets/Scenes/1-5.unity
    guid: 0d4a490fc215a80439af025182d374b2
  - enabled: 1
    path: Assets/Scenes/1-6.unity
    guid: fa985e62d7b7d474ca2dc722eca6d788
  - enabled: 1
    path: Assets/Scenes/1-7.unity
    guid: 01f590c4c91bb5a4c9dac748d9404b30
  - enabled: 1
    path: Assets/Scenes/1-8.unity
    guid: 5ba8f57ab8e907e4a8da9247a74e99b9
  - enabled: 1
    path: Assets/Scenes/1-9.unity
    guid: a46d20cf1b3f214489dd0ec3e2bd8b92
  - enabled: 1
    path: Assets/Scenes/1-10.unity
    guid: 4506415eb58d4784fb238d99d8f30ffb
  - enabled: 1
    path: Assets/Scenes/1-11.unity
    guid: fe18baa85ee6baf479dbcf65c29f569d
  - enabled: 1
    path: Assets/Scenes/1-12.unity
    guid: 3e805159b22c39a4883437a359df143a
  - enabled: 1
    path: Assets/Scenes/1-13.unity
    guid: de9366333505c1147a30a45cd3af8f4b
  - enabled: 1
    path: Assets/Scenes/1-14.unity
    guid: cae6f50215a1428469b79321866cb496
  - enabled: 1
    path: Assets/Scenes/1-15.unity
    guid: 173ab66a903ed5046936ea60d938cd3d
  - enabled: 1
    path: Assets/Scenes/1-16.unity
    guid: 94f649d08baf66b42883829adbeb1583
  - enabled: 1
    path: Assets/Scenes/1-17.unity
    guid: 739323988fa101449b7f1f0d2591e864
  - enabled: 1
    path: Assets/Scenes/1-18.unity
    guid: c0ed27e9e189a9047818671a1d033d2c
  - enabled: 1
    path: Assets/Scenes/1-19.unity
    guid: 1622f634e91abc64e9b3bfdef632fb22
  - enabled: 1
    path: Assets/Scenes/1-20.unity
    guid: 8096e9a512b33a049b921ea4c9e3f087
  - enabled: 1
    path: Assets/Scenes/SpeedRun.unity
    guid: 5a667c366ad8bbc4cbad2367c912b544
